…
This code first uses summarize to make a df with the number of homicides by disposition. The second summarize function sums the total homicides and the number of unsolved homicides in each city.

``` r
unsolved = homicides_df %>% 
  mutate(city_state = str_c(city, ",\ ", state)) %>% 
  group_by(city_state, disposition) %>% 
  summarize(number_homicides = n()) %>%
  summarize(total_homicides = sum(number_homicides),
            unsolved_homicides = sum(number_homicides[disposition != "Closed by arrest"]))

unsolved
```

    ## # A tibble: 51 x 3
    ##    city_state      total_homicides unsolved_homicides
    ##    <chr>                     <int>              <int>
    ##  1 Albuquerque, NM             378                146
    ##  2 Atlanta, GA                 973                373
    ##  3 Baltimore, MD              2827               1825
    ##  4 Baton Rouge, LA             424                196
    ##  5 Birmingham, AL              800                347
    ##  6 Boston, MA                  614                310
    ##  7 Buffalo, NY                 521                319
    ##  8 Charlotte, NC               687                206
    ##  9 Chicago, IL                5535               4073
    ## 10 Cincinnati, OH              694                309
    ## # ... with 41 more rows
…
